%YAML 1.1
%TAG !u! tag:unity3d.com,2011:
--- !u!1045 &1
EditorBuildSettings:
  m_ObjectHideFlags: 0
  serializedVersion: 2
  m_Scenes:
  - enabled: 1
    path: Assets/_Scenes/Introduce_Viet.unity
    guid: 834f0979b7e44d548a1e28702b8d9126
  - enabled: 1
    path: Assets/_Scenes/Menu.unity
    guid: 1074a6626df52554c8d5766cedceb9d2
  - enabled: 1
    path: Assets/_Scenes/CameraIntroduce.unity
    guid: e5a191df6365acf42a5e32cf7aa33215
  - enabled: 1
    path: Assets/_Scenes/Level_01.unity
    guid: 6e9d96b645472184191d59ea57c98078
  - enabled: 1
    path: Assets/_Scenes/Level_02.unity
    guid: 6b4517cebcd5f7441919dac90c6abd0f
  - enabled: 1
    path: Assets/_Scenes/Level_03.unity
    guid: d3b340d7cf4660948859ce39006a5105
  - enabled: 1
    path: Assets/_Scenes/Credits.unity
    guid: 734eff40b2eed50489ae25655c6bd826
  m_configObjects: {}
